Lab_12/.Xil/Vivado-22036-DESKTOP-R7M70QL/hw_ila_data_1/zip_work/waveform.vcd
$date
        2020-May-04 12:52:05
$end
$version
        Vivado v2019.2 (64-bit)
$end
$timescale
        1ps
$end
$scope module dut $end
$var reg 32 " \CPU/datapath/RegisterFile/output[4]_3 [31:0] $end
$var reg 32 B \CPU/datapath/RegisterFile/output[0]_7 [31:0] $end
$var reg 32 b \CPU/datapath/RegisterFile/output[6]_1 [31:0] $end
$var reg 32 $" \CPU/datapath/RegisterFile/output[7]_0 [31:0] $end
$var reg 32 D" CPU/datapath/AdressI [31:0] $end
$var reg 32 d" \CPU/datapath/RegisterFile/output[1]_6 [31:0] $end
$var reg 32 &# \CPU/datapath/RegisterFile/output[2]_5 [31:0] $end
$var reg 32 F# \CPU/datapath/RegisterFile/output[5]_2 [31:0] $end
$var reg 32 f# \CPU/datapath/RegisterFile/output[3]_4 [31:0] $end
$var reg 32 ($ CPU/datapath/PC_out [31:0] $end
$var reg 16 H$ CPU/I_line [15:0] $end
$var reg 1 X$ _TRIGGER $end
$var reg 1 Y$ _WINDOW $end
$var reg 1 Z$ _GAP $end
$upscope $end
$enddefinitions $end
#0
$dumpvars
b10000011000 "
b0 B
b11000000000001111110111110100 b
b1111000010 $"
b1110010010 D"
b1000000000000000001010000000 d"
b11110 &#
b10 F#
b0 f#
b1110001110 ($
b1111100111111101 H$
0X$
1Y$
0Z$
$end
#1
b1110001110 D"
b1110010000 ($
#2
b10100001000 H$
#3
b1000000000000000001010000101 D"
#4
b1100000 B
#9
b1110010000 D"
b1110010010 ($
#10
b1100100000001000 H$
#11
b0 B
#12
b1110010010 D"
b1110010100 ($
#13
b1111100111111101 H$
#14
b1110001110 ($
#15
b1110001110 D"
b1110010000 ($
#16
b10100001000 H$
#17
b1000000000000000001010000101 D"
#18
b1100000 B
#23
b1110010000 D"
b1110010010 ($
#24
b1100100000001000 H$
#25
b0 B
#26
b1110010010 D"
b1110010100 ($
#27
b1111100111111101 H$
#28
b1110001110 ($
#29
b1110001110 D"
b1110010000 ($
#30
b10100001000 H$
#31
b1000000000000000001010000101 D"
#32
b1100000 B
#37
b1110010000 D"
b1110010010 ($
#38
b1100100000001000 H$
#39
b0 B
#40
b1110010010 D"
b1110010100 ($
#41
b1111100111111101 H$
#42
b1110001110 ($
#43
b1110001110 D"
b1110010000 ($
#44
b10100001000 H$
#45
b1000000000000000001010000101 D"
#46
b1100000 B
#48
b1100001 B
#51
b1110010000 D"
b1110010010 ($
#52
b1100100000001000 H$
#53
b1 B
#54
b1110010010 D"
b1110010100 ($
#55
b1111100111111101 H$
#57
b1110010100 D"
b1110010110 ($
#58
b1000 H$
#59
b0 B
b1000000000000000001010000000 D"
#60
b1100001 B
#61
b1000100 B
#65
b1110010110 D"
b1110011000 ($
#66
b1010011100110110 H$
#67
b11000000000001111110111110000 b
#68
b1110011000 D"
b1110011010 ($
#69
b100000010110111 H$
#70
b11000000000001111110111110000 D"
#73
b1110011010 D"
b1110011100 ($
#74
b1010011100110110 H$
#75
b11000000000001111110111101100 b
#76
b1110011100 D"
b1110011110 ($
#77
b100000010110000 H$
#78
b11000000000001111110111101100 D"
#81
b1110011110 D"
b1110100000 ($
#82
b1000111111 H$
#83
b0 $"
b1110110000 D"
#84
b1011011100 $"
#86
b1110100000 D"
b1110100010 ($
#87
b1110000000000111 H$
#88
b1110100010 $"
b1011011100 ($
#89
b1011011100 D"
b1011011110 ($
#90
b1010011100110110 H$
#91
b11000000000001111110111101000 b
#92
b1011011110 D"
b1011100000 ($
#93
b100000010110100 H$
#94
b11000000000001111110111101000 D"
#97
b1011100000 D"
b1011100010 ($
#98
b1010011100110110 H$
#99
b11000000000001111110111100100 b
#100
b1011100010 D"
b1011100100 ($
#101
b100000010110011 H$
#102
b11000000000001111110111100100 D"
#105
b1011100100 D"
b1011100110 ($
#106
b1010011100110110 H$
#107
b11000000000001111110111100000 b
#108
b1011100110 D"
b1011101000 ($
#109
b100000010110010 H$
#110
b11000000000001111110111100000 D"
#113
b1011101000 D"
b1011101010 ($
#114
b1010011100110110 H$
#115
b11000000000001111110111011100 b
#116
b1011101010 D"
b1011101100 ($
#117
b100000010110001 H$
#118
b11000000000001111110111011100 D"
#121
b1011101100 D"
b1011101110 ($
#122
b1010011100110110 H$
#123
b11000000000001111110111011000 b
#124
b1011101110 D"
b1011110000 ($
#125
b100000010110000 H$
#126
b11000000000001111110111011000 D"
#129
b1011110000 D"
b1011110010 ($
#130
b11001111001 H$
#131
b1100100100 D"
b0 d"
#132
b11000000000001111111111111111 d"
#134
b1011110010 D"
b1011110100 ($
#135
b1010 H$
#136
b11000000000001111111111111111 D"
b0 &#
#137
b100 &#
#139
b1011110100 D"
b1011110110 ($
#140
b11001111011 H$
#141
b1100101000 D"
#142
b1000000000000000000000000000 f#
#144
b1011110110 D"
b1011111000 ($
#145
b1000000010011011 H$
#146
b1000000000000000000000000100 f#
#147
b1011111000 D"
b1011111010 ($
#148
b1010000000000100 H$
#149
b1000100 "
#150
b1011111010 D"
b1011111100 ($
#151
b1100100001111100 H$
#152
b100 "
#153
b1011111100 D"
b1011111110 ($
#154
b100000000011100 H$
#155
b1000000000000000000000000100 D"
#161
b1011111110 D"
b1100000000 ($
#162
b1011000100000100 H$
#164
b1100000000 D"
b1100000010 ($
#165
b1100100001111100 H$
#167
b1100000010 D"
b1100000100 ($
#168
b100000100011100 H$
#169
b1000000000000000000000000101 D"
#175
b1100000100 D"
b1100000110 ($
#176
b1010000010010010 H$
#177
b110 &#
#178
b1100000110 D"
b1100001000 ($
#179
b1000011101000010 H$
#181
b1100001000 D"
b1100001010 ($
#182
b1111110010000001 H$
#183
b1100001100 ($
#184
b1100001100 D"
b1100001110 ($
#185
b100000000001010 H$
#186
b11000000000001111111111111111 D"
#189
b1100001110 D"
b1100010000 ($
#190
b10110000 H$
#191
b0 B
b11000000000001111110111011000 D"
#192
b1000100 B
#194
b1100010000 D"
b1100010010 ($
#195
b1010000100110110 H$
#196
b11000000000001111110111011100 b
#197
b1100010010 D"
b1100010100 ($
#198
b10110001 H$
#199
b11000000000001111110111011100 D"
b0 d"
#200
b1000000000000000001010000000 d"
#202
b1100010100 D"
b1100010110 ($
#203
b1010000100110110 H$
#204
b11000000000001111110111100000 b
#205
b1100010110 D"
b1100011000 ($
#206
b10110010 H$
#207
b11000000000001111110111100000 D"
b0 &#
#208
b11110 &#
#210
b1100011000 D"
b1100011010 ($
#211
b1010000100110110 H$
#212
b11000000000001111110111100100 b
#213
b1100011010 D"
b1100011100 ($
#214
b10110011 H$
#215
b11000000000001111110111100100 D"
b0 f#
#218
b1100011100 D"
b1100011110 ($
#219
b1010000100110110 H$
#220
b11000000000001111110111101000 b
#221
b1100011110 D"
b1100100000 ($
#222
b10110100 H$
#223
b0 "
b11000000000001111110111101000 D"
#224
b10000011000 "
#226
b1100100000 D"
b1100100010 ($
#227
b1010000100110110 H$
#228
b11000000000001111110111101100 b
#229
b1100100010 D"
b1100100100 ($
#230
b1110100000000111 H$
#231
b1110100010 ($
#232
b1110100010 D"
b1110100100 ($
#233
b10110000 H$
#234
b0 B
b11000000000001111110111101100 D"
#235
b1000100 B
#237
b1110100100 D"
b1110100110 ($
#238
b1010000100110110 H$
#239
b11000000000001111110111110000 b
#240
b1110100110 D"
b1110101000 ($
#241
b10110111 H$
#242
b0 $"
b11000000000001111110111110000 D"
#243
b1111000010 $"
#245
b1110101000 D"
b1110101010 ($
#246
b1010000100110110 H$
#247
b11000000000001111110111110100 b
#248
b1110101010 D"
b1110101100 ($
#249
b1110100000000111 H$
#250
b1111000010 ($
#251
b1111000010 D"
b1111000100 ($
#252
b100001 H$
#253
b10000011000 D"
b0 d"
#254
b1000001 d"
#256
b1111000100 D"
b1111000110 ($
#257
b100100010 H$
#258
b10000011001 D"
b0 &#
#259
b10010000 &#
#261
b1111000110 D"
b1111001000 ($
#262
b1000011100000001 H$
#264
b1111001000 D"
b1111001010 ($
#265
b1111100110010001 H$
#267
b1111001010 D"
b1111001100 ($
#268
b1000011000001000 H$
#270
b1111001100 D"
b1111001110 ($
#271
b1111100110000111 H$
#273
b1111001110 D"
b1111010000 ($
#274
b1010000010100100 H$
#275
b10000011010 "
#276
b1111010000 D"
b1111010010 ($
#277
b1111100001111000 H$
#278
b1111000010 ($
#279
b1111000010 D"
b1111000100 ($
#280
b100001 H$
#281
b10000011010 D"
b0 d"
#282
b1000010 d"
#284
b1111000100 D"
b1111000110 ($
#285
b100100010 H$
#286
b10000011011 D"
b0 &#
#287
b10010001 &#
#289
b1111000110 D"
b1111001000 ($
#290
b1000011100000001 H$
#292
b1111001000 D"
b1111001010 ($
#293
b1111100110010001 H$
#295
b1111001010 D"
b1111001100 ($
#296
b1000011000001000 H$
#298
b1111001100 D"
b1111001110 ($
#299
b1111100110000111 H$
#301
b1111001110 D"
b1111010000 ($
#302
b1010000010100100 H$
#303
b10000011100 "
#304
b1111010000 D"
b1111010010 ($
#305
b1111100001111000 H$
#306
b1111000010 ($
#307
b1111000010 D"
b1111000100 ($
#308
b100001 H$
#309
b10000011100 D"
b0 d"
#310
b1000011 d"
#312
b1111000100 D"
b1111000110 ($
#313
b100100010 H$
#314
b10000011101 D"
b0 &#
#315
b10010010 &#
#317
b1111000110 D"
b1111001000 ($
#318
b1000011100000001 H$
#320
b1111001000 D"
b1111001010 ($
#321
b1111100110010001 H$
#323
b1111001010 D"
b1111001100 ($
#324
b1000011000001000 H$
#326
b1111001100 D"
b1111001110 ($
#327
b1111100110000111 H$
#329
b1111001110 D"
b1111010000 ($
#330
b1010000010100100 H$
#331
b10000011110 "
#332
b1111010000 D"
b1111010010 ($
#333
b1111100001111000 H$
#334
b1111000010 ($
#335
b1111000010 D"
b1111000100 ($
#336
b100001 H$
#337
b10000011110 D"
b0 d"
#338
b1000100 d"
#340
b1111000100 D"
b1111000110 ($
#341
b100100010 H$
#342
b10000011111 D"
b0 &#
#343
b10010011 &#
#345
b1111000110 D"
b1111001000 ($
#346
b1000011100000001 H$
#348
b1111001000 D"
b1111001010 ($
#349
b1111100110010001 H$
#351
b1111001010 D"
b1111001100 ($
#352
b1000011000001000 H$
#354
b1111001100 D"
b1111001110 ($
#355
b1111100110000111 H$
#356
b1111011100 ($
#357
b1111011100 D"
b1111011110 ($
#358
b101111011 H$
#359
b1111101000 D"
#360
b10000000 f#
#362
b1111011110 D"
b1111100000 ($
#363
b1000101011010011 H$
#365
b1111100000 D"
b1111100010 ($
#366
b1111101000000101 H$
#367
b1111101100 ($
#368
b1111101100 D"
b1111101110 ($
#369
b1010000000010000 H$
#370
b10010011 B
#371
b1111101110 D"
b1111110000 ($
#372
b10110100 H$
#373
b0 "
b11000000000001111110111110100 D"
#376
b1111110000 D"
b1111110010 ($
#377
b1010000100110110 H$
#378
b11000000000001111110111111000 b
#379
b1111110010 D"
b1111110100 ($
#380
b10110111 H$
#381
b0 $"
b11000000000001111110111111000 D"
#382
b11011010 $"
#384
b1111110100 D"
b1111110110 ($
#385
b1010000100110110 H$
#386
b11000000000001111110111111100 b
#387
b1111110110 D"
b1111111000 ($
#388
b1110100000000111 H$
#389
b11011010 ($
#390
b11011010 D"
b11011100 ($
#391
b1110111001 H$
#392
b11111000 D"
b0 d"
#393
b100000100 d"
#395
b11011100 D"
b11011110 ($
#396
b10001010 H$
#397
b100000100 D"
b0 &#
#398
b1101 &#
#400
b11011110 D"
b11100000 ($
#401
b1000011100000010 H$
#403
b11100000 D"
b11100010 ($
#404
b1111100110001101 H$
#406
b11100010 D"
b11100100 ($
#407
b1000011000000010 H$
#409
b11100100 D"
b11100110 ($
#410
b1111100110001011 H$
#412
b11100110 D"
b11101000 ($
#413
b1010001000001001 H$
#414
b100001100 d"
#415
b11101000 D"
b11101010 ($
#416
b1111100001111001 H$
#417
b11011100 ($
#418
b11011100 D"
b11011110 ($
#419
b10001010 H$
#420
b100001100 D"
b0 &#
#421
b1010 &#
#423
b11011110 D"
b11100000 ($
#424
b1000011100000010 H$
#426
b11100000 D"
b11100010 ($
#427
b1111100110001101 H$
#429
b11100010 D"
b11100100 ($
#430
b1000011000000010 H$
#432
b11100100 D"
b11100110 ($
#433
b1111100110001011 H$
#435
b11100110 D"
b11101000 ($
#436
b1010001000001001 H$
#437
b100010100 d"
#438
b11101000 D"
b11101010 ($
#439
b1111100001111001 H$
#440
b11011100 ($
#441
b11011100 D"
b11011110 ($
#442
b10001010 H$
#443
b100010100 D"
b0 &#
#444
b1111111 &#
#446
b11011110 D"
b11100000 ($
#447
b1000011100000010 H$
#449
b11100000 D"
b11100010 ($
#450
b1111100110001101 H$
#452
b11100010 D"
b11100100 ($
#453
b1000011000000010 H$
#455
b11100100 D"
b11100110 ($
#456
b1111100110001011 H$
#458
b11100110 D"
b11101000 ($
#459
b1010001000001001 H$
#460
b100011100 d"
#461
b11101000 D"
b11101010 ($
#462
b1111100001111001 H$
#463
b11011100 ($
#464
b11011100 D"
b11011110 ($
#465
b10001010 H$
#466
b100011100 D"
b0 &#
#467
b10010111 &#
#469
b11011110 D"
b11100000 ($
#470
b1000011100000010 H$
#472
b11100000 D"
b11100010 ($
#473
b1111100110001101 H$
#475
b11100010 D"
b11100100 ($
#476
b1000011000000010 H$
#478
b11100100 D"
b11100110 ($
#479
b1111100110001011 H$
#481
b11100110 D"
b11101000 ($
#482
b1010001000001001 H$
#483
b100100100 d"
#484
b11101000 D"
b11101010 ($
#485
b1111100001111001 H$
#486
b11011100 ($
#487
b11011100 D"
b11011110 ($
#488
b10001010 H$
#489
b100100100 D"
b0 &#
#490
b10010011 &#
#492
b11011110 D"
b11100000 ($
#493
b1000011100000010 H$
#495
b11100000 D"
b11100010 ($
#496
b1111100110001101 H$
#498
b11100010 D"
b11100100 ($
#499
b1000011000000010 H$
#501
b11100100 D"
b11100110 ($
#502
b1111100110001011 H$
#503
b11111100 ($
#504
b11111100 D"
b11111110 ($
#505
b110001001 H$
#506
b100101000 D"
b0 d"
#507
b111101000 d"
#509
b11111110 D"
b100000000 ($
#510
b1110000000000001 H$
#511
b100000000 $"
b111101000 ($
#512
b111101000 D"
b111101010 ($
1X$
#513
b1010011100110110 H$
#514
b11000000000001111110111111000 b
#515
b111101010 D"
b111101100 ($
#516
b100000010110111 H$
#517
b11000000000001111110111111000 D"
#520
b111101100 D"
b111101110 ($
#521
b1011111001 H$
#522
b1000000100 D"
b0 d"
#523
b11000000000001111111100000001 d"
#525
b111101110 D"
b111110000 ($
#526
b1000 H$
#527
b0 B
b11000000000001111111100000001 D"
#528
b1011 B
#530
b111110000 D"
b111110010 ($
#531
b1010011111000000 H$
#532
b1010 B
#533
b111110010 D"
b111110100 ($
#534
b1111110010000100 H$
#535
b111111100 ($
#536
b111111100 D"
b111111110 ($
#537
b1100000000000000 H$
#538
b0 B
#539
b111111110 D"
b1000000000 ($
#540
b10110111 H$
#541
b0 $"
b11000000000001111110111111000 D"
#542
b100000000 $"
#544
b1000000000 D"
b1000000010 ($
#545
b1010000100110110 H$
#546
b11000000000001111110111111100 b
#547
b1000000010 D"
b1000000100 ($
#548
b1110100000000111 H$
#549
b100000000 ($
#550
b100000000 D"
b100000010 ($
#551
b1111100001010101 H$
#552
b10101100 ($
#553
b10101100 D"
b10101110 ($
#554
b1000011100000000 H$
#556
b10101110 D"
b10110000 ($
#557
b1111100110001110 H$
#558
b11001100 ($
#559
b11001100 D"
b11001110 ($
#560
b1111111111 H$
#561
b0 $"
b11101100 D"
#562
b1110001100 $"
#564
b11001110 D"
b11010000 ($
#565
b1110000000000111 H$
#566
b11010000 $"
b1110001100 ($
#567
b1110001100 D"
b1110001110 ($
#568
b1111111001 H$
#569
b1110101100 D"
b0 d"
#570
b1000000000000000001010000000 d"
#572
b1110001110 D"
b1110010000 ($
#573
b10100001000 H$
#574
b1000000000000000001010000101 D"
#576
b1100000 B
#580
b1110010000 D"
b1110010010 ($
#581
b1100100000001000 H$
#582
b0 B
#583
b1110010010 D"
b1110010100 ($
#584
b1111100111111101 H$
#585
b1110001110 ($
#586
b1110001110 D"
b1110010000 ($
#587
b10100001000 H$
#588
b1000000000000000001010000101 D"
#589
b1100000 B
#594
b1110010000 D"
b1110010010 ($
#595
b1100100000001000 H$
#596
b0 B
#597
b1110010010 D"
b1110010100 ($
#598
b1111100111111101 H$
#599
b1110001110 ($
#600
b1110001110 D"
b1110010000 ($
#601
b10100001000 H$
#602
b1000000000000000001010000101 D"
#603
b1100000 B
#608
b1110010000 D"
b1110010010 ($
#609
b1100100000001000 H$
#610
b0 B
#611
b1110010010 D"
b1110010100 ($
#612
b1111100111111101 H$
#613
b1110001110 ($
#614
b1110001110 D"
b1110010000 ($
#615
b10100001000 H$
#616
b1000000000000000001010000101 D"
#617
b1100000 B
#622
b1110010000 D"
b1110010010 ($
#623
b1100100000001000 H$
#624
b0 B
#625
b1110010010 D"
b1110010100 ($
#626
b1111100111111101 H$
#627
b1110001110 ($
#628
b1110001110 D"
b1110010000 ($
#629
b10100001000 H$
#630
b1000000000000000001010000101 D"
#631
b1100000 B
#636
b1110010000 D"
b1110010010 ($
#637
b1100100000001000 H$
#638
b0 B
#639
b1110010010 D"
b1110010100 ($
#640
b1111100111111101 H$
#641
b1110001110 ($
#642
b1110001110 D"
b1110010000 ($
#643
b10100001000 H$
#644
b1000000000000000001010000101 D"
#645
b1100000 B
#650
b1110010000 D"
b1110010010 ($
#651
b1100100000001000 H$
#652
b0 B
#653
b1110010010 D"
b1110010100 ($
#654
b1111100111111101 H$
#655
b1110001110 ($
#656
b1110001110 D"
b1110010000 ($
#657
b10100001000 H$
#658
b1000000000000000001010000101 D"
#659
b1100000 B
#664
b1110010000 D"
b1110010010 ($
#665
b1100100000001000 H$
#666
b0 B
#667
b1110010010 D"
b1110010100 ($
#668
b1111100111111101 H$
#669
b1110001110 ($
#670
b1110001110 D"
b1110010000 ($
#671
b10100001000 H$
#672
b1000000000000000001010000101 D"
#673
b1100000 B
#678
b1110010000 D"
b1110010010 ($
#679
b1100100000001000 H$
#680
b0 B
#681
b1110010010 D"
b1110010100 ($
#682
b1111100111111101 H$
#683
b1110001110 ($
#684
b1110001110 D"
b1110010000 ($
#685
b10100001000 H$
#686
b1000000000000000001010000101 D"
#687
b1100000 B
#692
b1110010000 D"
b1110010010 ($
#693
b1100100000001000 H$
#694
b0 B
#695
b1110010010 D"
b1110010100 ($
#696
b1111100111111101 H$
#697
b1110001110 ($
#698
b1110001110 D"
b1110010000 ($
#699
b10100001000 H$
#700
b1000000000000000001010000101 D"
#701
b1100000 B
#706
b1110010000 D"
b1110010010 ($
#707
b1100100000001000 H$
#708
b0 B
#709
b1110010010 D"
b1110010100 ($
#710
b1111100111111101 H$
#711
b1110001110 ($
#712
b1110001110 D"
b1110010000 ($
#713
b10100001000 H$
#714
b1000000000000000001010000101 D"
#715
b1100000 B
#720
b1110010000 D"
b1110010010 ($
#721
b1100100000001000 H$
#722
b0 B
#723
b1110010010 D"
b1110010100 ($
#724
b1111100111111101 H$
#725
b1110001110 ($
#726
b1110001110 D"
b1110010000 ($
#727
b10100001000 H$
#728
b1000000000000000001010000101 D"
#729
b1100000 B
#734
b1110010000 D"
b1110010010 ($
#735
b1100100000001000 H$
#736
b0 B
#737
b1110010010 D"
b1110010100 ($
#738
b1111100111111101 H$
#739
b1110001110 ($
#740
b1110001110 D"
b1110010000 ($
#741
b10100001000 H$
#742
b1000000000000000001010000101 D"
#743
b1100000 B
#748
b1110010000 D"
b1110010010 ($
#749
b1100100000001000 H$
#750
b0 B
#751
b1110010010 D"
b1110010100 ($
#752
b1111100111111101 H$
#753
b1110001110 ($
#754
b1110001110 D"
b1110010000 ($
#755
b10100001000 H$
#756
b1000000000000000001010000101 D"
#757
b1100000 B
#762
b1110010000 D"
b1110010010 ($
#763
b1100100000001000 H$
#764
b0 B
#765
b1110010010 D"
b1110010100 ($
#766
b1111100111111101 H$
#767
b1110001110 ($
#768
b1110001110 D"
b1110010000 ($
#769
b10100001000 H$
#770
b1000000000000000001010000101 D"
#771
b1100000 B
#776
b1110010000 D"
b1110010010 ($
#777
b1100100000001000 H$
#778
b0 B
#779
b1110010010 D"
b1110010100 ($
#780
b1111100111111101 H$
#781
b1110001110 ($
#782
b1110001110 D"
b1110010000 ($
#783
b10100001000 H$
#784
b1000000000000000001010000101 D"
#785
b1100000 B
#790
b1110010000 D"
b1110010010 ($
#791
b1100100000001000 H$
#792
b0 B
#793
b1110010010 D"
b1110010100 ($
#794
b1111100111111101 H$
#795
b1110001110 ($
#796
b1110001110 D"
b1110010000 ($
#797
b10100001000 H$
#798
b1000000000000000001010000101 D"
#799
b1100000 B
#804
b1110010000 D"
b1110010010 ($
#805
b1100100000001000 H$
#806
b0 B
#807
b1110010010 D"
b1110010100 ($
#808
b1111100111111101 H$
#809
b1110001110 ($
#810
b1110001110 D"
b1110010000 ($
#811
b10100001000 H$
#812
b1000000000000000001010000101 D"
#813
b1100000 B
#818
b1110010000 D"
b1110010010 ($
#819
b1100100000001000 H$
#820
b0 B
#821
b1110010010 D"
b1110010100 ($
#822
b1111100111111101 H$
#823
b1110001110 ($
#824
b1110001110 D"
b1110010000 ($
#825
b10100001000 H$
#826
b1000000000000000001010000101 D"
#827
b1100000 B
#832
b1110010000 D"
b1110010010 ($
#833
b1100100000001000 H$
#834
b0 B
#835
b1110010010 D"
b1110010100 ($
#836
b1111100111111101 H$
#837
b1110001110 ($
#838
b1110001110 D"
b1110010000 ($
#839
b10100001000 H$
#840
b1000000000000000001010000101 D"
#841
b1100000 B
#846
b1110010000 D"
b1110010010 ($
#847
b1100100000001000 H$
#848
b0 B
#849
b1110010010 D"
b1110010100 ($
#850
b1111100111111101 H$
#851
b1110001110 ($
#852
b1110001110 D"
b1110010000 ($
#853
b10100001000 H$
#854
b1000000000000000001010000101 D"
#855
b1100000 B
#860
b1110010000 D"
b1110010010 ($
#861
b1100100000001000 H$
#862
b0 B
#863
b1110010010 D"
b1110010100 ($
#864
b1111100111111101 H$
#865
b1110001110 ($
#866
b1110001110 D"
b1110010000 ($
#867
b10100001000 H$
#868
b1000000000000000001010000101 D"
#869
b1100000 B
#874
b1110010000 D"
b1110010010 ($
#875
b1100100000001000 H$
#876
b0 B
#877
b1110010010 D"
b1110010100 ($
#878
b1111100111111101 H$
#879
b1110001110 ($
#880
b1110001110 D"
b1110010000 ($
#881
b10100001000 H$
#882
b1000000000000000001010000101 D"
#883
b1100000 B
#888
b1110010000 D"
b1110010010 ($
#889
b1100100000001000 H$
#890
b0 B
#891
b1110010010 D"
b1110010100 ($
#892
b1111100111111101 H$
#893
b1110001110 ($
#894
b1110001110 D"
b1110010000 ($
#895
b10100001000 H$
#896
b1000000000000000001010000101 D"
#897
b1100000 B
#902
b1110010000 D"
b1110010010 ($
#903
b1100100000001000 H$
#904
b0 B
#905
b1110010010 D"
b1110010100 ($
#906
b1111100111111101 H$
#907
b1110001110 ($
#908
b1110001110 D"
b1110010000 ($
#909
b10100001000 H$
#910
b1000000000000000001010000101 D"
#911
b1100000 B
#916
b1110010000 D"
b1110010010 ($
#917
b1100100000001000 H$
#918
b0 B
#919
b1110010010 D"
b1110010100 ($
#920
b1111100111111101 H$
#921
b1110001110 ($
#922
b1110001110 D"
b1110010000 ($
#923
b10100001000 H$
#924
b1000000000000000001010000101 D"
#925
b1100000 B
#930
b1110010000 D"
b1110010010 ($
#931
b1100100000001000 H$
#932
b0 B
#933
b1110010010 D"
b1110010100 ($
#934
b1111100111111101 H$
#935
b1110001110 ($
#936
b1110001110 D"
b1110010000 ($
#937
b10100001000 H$
#938
b1000000000000000001010000101 D"
#939
b1100000 B
#944
b1110010000 D"
b1110010010 ($
#945
b1100100000001000 H$
#946
b0 B
#947
b1110010010 D"
b1110010100 ($
#948
b1111100111111101 H$
#949
b1110001110 ($
#950
b1110001110 D"
b1110010000 ($
#951
b10100001000 H$
#952
b1000000000000000001010000101 D"
#953
b1100000 B
#958
b1110010000 D"
b1110010010 ($
#959
b1100100000001000 H$
#960
b0 B
#961
b1110010010 D"
b1110010100 ($
#962
b1111100111111101 H$
#963
b1110001110 ($
#964
b1110001110 D"
b1110010000 ($
#965
b10100001000 H$
#966
b1000000000000000001010000101 D"
#967
b1100000 B
#972
b1110010000 D"
b1110010010 ($
#973
b1100100000001000 H$
#974
b0 B
#975
b1110010010 D"
b1110010100 ($
#976
b1111100111111101 H$
#977
b1110001110 ($
#978
b1110001110 D"
b1110010000 ($
#979
b10100001000 H$
#980
b1000000000000000001010000101 D"
#981
b1100000 B
#986
b1110010000 D"
b1110010010 ($
#987
b1100100000001000 H$
#988
b0 B
#989
b1110010010 D"
b1110010100 ($
#990
b1111100111111101 H$
#991
b1110001110 ($
#992
b1110001110 D"
b1110010000 ($
#993
b10100001000 H$
#994
b1000000000000000001010000101 D"
#995
b1100000 B
#1000
b1110010000 D"
b1110010010 ($
#1001
b1100100000001000 H$
#1002
b0 B
#1003
b1110010010 D"
b1110010100 ($
#1004
b1111100111111101 H$
#1005
b1110001110 ($
#1006
b1110001110 D"
b1110010000 ($
#1007
b10100001000 H$
#1008
b1000000000000000001010000101 D"
#1009
b1100000 B
#1014
b1110010000 D"
b1110010010 ($
#1015
b1100100000001000 H$
#1016
b0 B
#1017
b1110010010 D"
b1110010100 ($
#1018
b1111100111111101 H$
#1019
b1110001110 ($
#1020
b1110001110 D"
b1110010000 ($
#1021
b10100001000 H$
#1022
b1000000000000000001010000101 D"
#1023
b1100000 B
